\relax 
\providecommand\hyper@newdestlabel[2]{}
\providecommand*{\memsetcounter}[2]{}
\catcode `"\active 
\providecommand\HyperFirstAtBeginDocument{\AtBeginDocument}
\HyperFirstAtBeginDocument{\ifx\hyper@anchor\@undefined
\global\let\oldcontentsline\contentsline
\gdef\contentsline#1#2#3#4{\oldcontentsline{#1}{#2}{#3}}
\global\let\oldnewlabel\newlabel
\gdef\newlabel#1#2{\newlabelxx{#1}#2}
\gdef\newlabelxx#1#2#3#4#5#6{\oldnewlabel{#1}{{#2}{#3}}}
\AtEndDocument{\ifx\hyper@anchor\@undefined
\let\contentsline\oldcontentsline
\let\newlabel\oldnewlabel
\fi}
\fi}
\global\let\hyper@last\relax 
\gdef\HyperFirstAtBeginDocument#1{#1}
\providecommand\HyField@AuxAddToFields[1]{}
\providecommand\HyField@AuxAddToCoFields[2]{}
\@writefile{lof}{\contentsline {figure}{\numberline {1}{\ignorespaces Plot of the error function}}{1}{figure.0.1}}
\newlabel{fig:errfunc}{{\M@TitleReference {1}{Plot of the error function}}{1}{Plot of the error function}{figure.0.1}{}}
\newlabel{fig:errfunc@cref}{{[figure][1][]1}{1}}
\select@language{danish}
\@writefile{toc}{\select@language{danish}}
\@writefile{lof}{\select@language{danish}}
\@writefile{lot}{\select@language{danish}}
\memsetcounter{lastsheet}{1}
\memsetcounter{lastpage}{1}
