\relax 
\providecommand*{\memsetcounter}[2]{}
\@writefile{lof}{\contentsline {figure}{\numberline {1}{\ignorespaces For loop rewritten to while loop.}}{1}}
\newlabel{fig:loops}{{\M@TitleReference {1}{For loop rewritten to while loop.}}{1}}
\@writefile{lof}{\contentsline {figure}{\numberline {2}{\ignorespaces Plot of the exponential function}}{2}}
\newlabel{fig:expfunc}{{\M@TitleReference {2}{Plot of the exponential function}}{2}}
\memsetcounter{lastsheet}{2}
\memsetcounter{lastpage}{2}
